INDEX VERSION 1.131+C:\Users\MI PC\Desktop\EjerciciosUD2-Entornos\RepositorioLocal1\proyectoUD2\.metadata\.plugins\org.eclipse.jdt.core
1190425708.index
2129487086.index
2273533691.index
1890818636.index
2745887974.index
925869992.index
712903199.index
836731900.index
401272846.index
3685490081.index
982931020.index
4119362662.index
1247397390.index
2154656376.index
2033692207.index
700298743.index
2164282837.index
